# 3ds Max Wavefront OBJ Exporter v0.97b - (c)2007 guruware
# File Created: 16.11.2014 10:20:13


#
# object default
#

v  -35.0736 45.3904 -0.3500
v  -19.7289 49.3266 -0.9814
v  -24.6832 46.1096 24.6833
v  -24.6834 46.6974 -24.6831
v  -44.1631 49.9951 -18.7710
v  -32.2170 49.6263 -32.3635
v  -16.6565 49.5830 -37.7095
v  -0.0003 49.2466 -39.8428
v  -0.0002 49.3267 -18.5273
v  24.6830 46.6975 -24.6833
v  16.6560 49.5831 -37.7096
v  32.2166 49.6264 -32.3637
v  44.1627 49.9952 -18.7713
v  35.0734 45.3905 -0.3503
v  19.7287 49.3268 -0.9815
v  24.6832 46.1097 24.6831
v  44.8963 49.7725 16.8456
v  48.2795 49.4580 -1.8509
v  54.7450 56.0328 9.3743
v  47.8471 56.0327 27.6495
v  34.4132 49.7679 31.7264
v  37.0147 56.0326 41.6392
v  19.1119 50.0456 41.7290
v  20.1040 56.0326 50.9977
v  0.0001 50.9269 46.0212
v  0.0000 48.3345 34.4979
v  -19.1119 50.0455 41.7291
v  -20.1038 56.0326 50.9979
v  0.0001 56.0326 53.3991
v  -0.0000 49.3267 16.5643
v  0.0000 13.7430 -0.9815
v  -15.4318 18.2363 -15.4176
v  -0.0001 18.2364 -21.3974
v  -21.8238 18.2363 -0.9814
v  -24.9213 28.9072 -0.9814
v  -17.6221 28.9072 14.6908
v  -15.4317 18.2363 13.4548
v  0.0001 18.2364 19.4344
v  0.0001 28.9073 21.1823
v  0.0000 38.2235 20.2409
v  17.6221 28.9074 14.6906
v  15.4319 18.2364 13.4546
v  21.8238 18.2365 -0.9816
v  15.4318 18.2364 -15.4178
v  17.6220 28.9074 -16.6537
v  -0.0001 28.9073 -23.1452
v  -17.6222 28.9072 -16.6535
v  -23.8629 38.2234 -0.9814
v  -16.8735 38.2234 14.0251
v  -16.8736 38.2234 -15.9878
v  -0.0001 38.2235 -22.2038
v  16.8734 38.2236 -15.9880
v  23.8627 38.2236 -0.9816
v  24.9213 28.9074 -0.9816
v  16.8735 38.2236 14.0249
v  -37.0147 56.0326 41.6394
v  -34.4132 49.7678 31.7266
v  -47.8471 56.0326 27.6499
v  -44.8964 49.7724 16.8459
v  -54.7452 56.0327 9.3747
v  -50.5467 69.2401 27.2650
v  -57.2333 69.2402 9.5505
v  -58.4269 69.2403 -9.9846
v  -56.0386 56.0327 -10.0935
v  -48.2797 49.4579 -1.8506
v  -49.6729 56.0328 -26.7204
v  -51.9151 69.2403 -28.0326
v  -39.5376 69.2404 -40.6864
v  -38.6481 56.0329 -38.3148
v  -20.8445 56.0329 -47.0486
v  -0.0003 56.0329 -49.5262
v  20.8439 56.0330 -47.0488
v  -0.0003 69.2405 -52.5078
v  -21.9525 69.2405 -49.5186
v  -20.4508 82.5798 -46.3322
v  -0.0003 82.5799 -49.0557
v  21.9519 69.2405 -49.5187
v  38.6475 56.0329 -38.3150
v  49.6725 56.0329 -26.7208
v  56.0382 56.0329 -10.0940
v  58.4265 69.2404 -9.9851
v  51.9147 69.2405 -28.0329
v  39.5370 69.2405 -40.6867
v  20.4502 82.5799 -46.3324
v  36.0219 82.5799 -38.3023
v  47.6524 82.5798 -25.7666
v  53.1609 82.5798 -9.8059
v  57.2331 69.2403 9.5501
v  50.5467 69.2403 27.2647
v  45.6152 82.5797 26.1423
v  53.1609 82.5797 8.7488
v  42.6642 96.9621 0.0593
v  36.1838 96.9620 20.8039
v  29.6628 111.3341 18.0064
v  34.2516 111.3341 0.0386
v  37.4012 96.9621 -21.3871
v  21.3976 97.1219 -35.4654
v  29.6627 111.3342 -17.9291
v  22.9348 124.4653 -14.2028
v  17.1256 111.3342 -31.0825
v  -0.0003 96.9621 -40.6869
v  -21.3982 97.1218 -35.4653
v  -36.0225 82.5798 -38.3021
v  -37.4016 96.9620 -21.3868
v  -29.6631 111.3341 -17.9289
v  -34.2520 111.3341 0.0389
v  -42.6646 96.9620 0.0596
v  -29.6630 111.3340 18.0066
v  -36.1840 96.9619 20.8042
v  -53.1611 82.5796 8.7492
v  -45.6152 82.5796 26.1427
v  -53.1613 82.5797 -9.8055
v  -47.6528 82.5797 -25.7662
v  -29.4337 69.2401 48.2677
v  -17.9985 82.5795 48.8372
v  -34.2016 82.6656 39.3110
v  -14.4392 69.2401 53.7741
v  0.0001 69.2401 55.6062
v  14.4394 69.2401 53.7740
v  29.4337 69.2402 48.2674
v  41.1291 69.2402 39.2353
v  34.2016 82.6657 39.3108
v  17.9985 82.5795 48.8370
v  0.0000 82.5795 52.2327
v  -0.0000 96.9619 41.5486
v  20.8908 96.9619 36.9568
v  17.1258 111.3340 31.1597
v  -0.0000 111.3340 35.9743
v  -17.1260 111.3340 31.1599
v  -20.8908 96.9619 36.9569
v  -28.5373 96.9619 32.5475
v  -41.1291 69.2401 39.2356
v  -17.1262 111.3342 -31.0823
v  -22.9352 124.4652 -14.2027
v  -13.0892 124.4653 -24.3451
v  -11.5715 132.6315 -11.5308
v  -0.0003 132.8251 -16.4592
v  -0.0002 135.5929 0.0405
v  -16.3645 132.6315 0.0406
v  -11.5715 132.6314 11.6119
v  -0.0001 132.8250 16.5402
v  11.5711 132.6315 11.6118
v  16.3641 132.6315 0.0404
v  11.5711 132.6316 -11.5309
v  13.0886 124.4653 -24.3452
v  -0.0003 124.4653 -27.0858
v  -0.0003 111.3342 -34.4372
v  26.1777 124.4652 0.0404
v  22.9349 124.4652 14.2837
v  -13.0890 124.4651 24.4262
v  -22.9351 124.4651 14.2838
v  -0.0001 124.4651 28.5270
v  13.0888 124.4651 24.4261
v  28.5373 96.9619 32.5472
v  -26.1781 124.4652 0.0406
v  -39.4083 124.9659 12.3656
v  -34.4824 125.8756 20.4340
v  -36.9327 127.5938 9.2614
v  -36.3279 121.3640 10.6351
v  -31.6602 122.3320 17.4939
v  -28.4337 123.8093 26.8438
v  -31.2625 129.1362 17.7819
v  -25.2177 127.0533 24.3151
v  -22.4298 119.1278 31.6612
v  -26.2671 120.6369 23.4650
v  -20.7783 116.6948 28.2433
v  -11.8447 107.3773 33.9987
v  -13.7873 108.3163 36.6598
v  -4.9099 102.8779 39.6818
v  -4.8548 105.9092 38.4632
v  -11.3397 110.3835 36.0594
v  -19.7685 121.7461 29.4587
v  -41.6522 117.4400 0.8731
v  39.4081 124.9660 12.3653
v  36.9323 127.5939 9.2611
v  34.4822 125.8757 20.4337
v  36.3275 121.3641 10.6348
v  31.6600 122.3321 17.4936
v  28.4335 123.8093 26.8437
v  26.2669 120.6369 23.4648
v  22.4296 119.1278 31.6611
v  20.7781 116.6948 28.2432
v  11.8446 107.3773 33.9986
v  13.7873 108.3163 36.6597
v  19.7683 121.7461 29.4586
v  11.3397 110.3835 36.0594
v  4.8548 105.9092 38.4632
v  4.9098 102.8779 39.6818
v  25.2175 127.0533 24.3150
v  31.2623 129.1363 17.7817
v  41.6518 117.4400 0.8728
v  -28.3951 0.0966 -19.5371
v  -30.6366 4.4333 -25.1439
v  -21.5545 0.0967 -19.5371
v  -39.1733 4.4333 -15.4905
v  -35.0759 0.0966 -11.9830
v  -42.5252 4.4332 0.0001
v  -37.4604 0.0966 0.0001
v  -39.1732 4.4332 15.4907
v  -35.0758 0.0965 11.9831
v  -30.6364 4.4332 25.1441
v  -41.2820 10.5425 16.8285
v  -45.1317 10.5426 0.0002
v  -43.7302 17.8558 0.0002
v  -40.1483 17.8559 -15.6582
v  -41.2821 10.5426 -16.8283
v  -30.7706 17.8559 -25.3356
v  -31.2037 10.5427 -27.2288
v  -19.1791 17.8559 -25.3356
v  -18.7461 10.5427 -27.2289
v  -9.8014 17.8559 -15.6583
v  -8.6676 10.5427 -16.8284
v  -6.2194 17.8558 0.0000
v  -4.8179 10.5426 0.0000
v  -9.8013 17.8558 15.6584
v  -8.6675 10.5426 16.8284
v  -18.7458 10.5425 27.2290
v  -19.1789 17.8557 25.3359
v  -30.7704 17.8557 25.3359
v  -31.2035 10.5425 27.2291
v  -40.1482 17.8557 15.6585
v  -35.0532 25.0359 0.0002
v  -24.9747 25.0358 15.5626
v  -24.9748 27.4939 0.0001
v  -24.9748 25.0359 -15.5623
v  -14.8964 25.0359 0.0001
v  -19.3132 4.4333 -25.1439
v  -21.5544 0.0965 19.5372
v  -19.3130 4.4332 25.1440
v  -28.3950 0.0965 19.5372
v  -10.7762 4.4332 15.4906
v  -14.8737 0.0965 11.9831
v  -7.4245 4.4333 0.0000
v  -12.4892 0.0966 0.0000
v  -10.7763 4.4333 -15.4906
v  -14.8738 0.0966 -11.9831
v  -24.9748 0.0966 0.0001
v  28.3951 0.0968 -19.5373
v  21.5545 0.0968 -19.5373
v  30.6365 4.4335 -25.1441
v  39.1733 4.4335 -15.4908
v  35.0759 0.0968 -11.9832
v  42.5252 4.4335 -0.0002
v  37.4604 0.0968 -0.0002
v  39.1734 4.4334 15.4904
v  35.0760 0.0967 11.9829
v  30.6367 4.4333 25.1438
v  41.2822 10.5427 16.8282
v  31.2038 10.5427 27.2288
v  40.1484 17.8559 15.6582
v  43.7302 17.8560 -0.0001
v  45.1317 10.5428 -0.0002
v  40.1483 17.8561 -15.6585
v  41.2821 10.5429 -16.8286
v  30.7705 17.8561 -25.3358
v  31.2036 10.5429 -27.2291
v  19.1790 17.8561 -25.3358
v  18.7459 10.5429 -27.2290
v  9.8014 17.8560 -15.6584
v  8.6676 10.5428 -16.8284
v  6.2194 17.8560 0.0000
v  4.8179 10.5428 -0.0000
v  9.8015 17.8559 15.6583
v  8.6677 10.5427 16.8283
v  18.7461 10.5427 27.2289
v  19.1792 17.8559 25.3357
v  30.7707 17.8559 25.3357
v  24.9749 25.0360 15.5624
v  35.0533 25.0361 -0.0001
v  24.9748 27.4941 -0.0000
v  24.9748 25.0361 -15.5625
v  14.8964 25.0361 -0.0000
v  19.3131 4.4335 -25.1440
v  10.7763 4.4335 -15.4907
v  21.5546 0.0967 19.5370
v  28.3952 0.0967 19.5370
v  19.3132 4.4333 25.1439
v  10.7764 4.4334 15.4905
v  14.8739 0.0967 11.9830
v  7.4245 4.4334 -0.0001
v  12.4893 0.0967 -0.0001
v  14.8738 0.0968 -11.9832
v  24.9749 0.0968 -0.0001
# 283 vertices

vn -0.0117 -0.9960 0.0891
vn -0.9856 -0.0081 0.1691
vn 0.0806 -0.9964 0.0252
vn -0.0973 -0.9951 0.0186
vn -0.1894 -0.9070 0.3762
vn -0.3657 -0.8878 0.2792
vn -0.4387 -0.8883 0.1357
vn -0.2758 -0.9612 -0.0000
vn -0.9988 0.0485 -0.0000
vn -0.0973 -0.9951 -0.0186
vn -0.4387 -0.8883 -0.1357
vn -0.3657 -0.8878 -0.2792
vn -0.1894 -0.9070 -0.3762
vn -0.0117 -0.9960 -0.0891
vn -0.9856 -0.0081 -0.1691
vn 0.0806 -0.9964 -0.0252
vn 0.1810 -0.8876 -0.4236
vn -0.0040 -0.8725 -0.4886
vn 0.1874 -0.4534 -0.8714
vn 0.4543 -0.5006 -0.7369
vn 0.3269 -0.8839 -0.3344
vn 0.6647 -0.5169 -0.5394
vn 0.3749 -0.9168 -0.1372
vn 0.8115 -0.5268 -0.2527
vn 0.4481 -0.8940 -0.0000
vn 0.1315 -0.9913 -0.0000
vn 0.3749 -0.9168 0.1372
vn 0.8115 -0.5268 0.2527
vn 0.9116 -0.4112 -0.0000
vn -0.9967 -0.0809 -0.0000
vn -1.0000 0.0000 -0.0000
vn -0.7291 -0.4990 -0.4684
vn -0.5352 -0.8448 -0.0000
vn -0.7469 0.0000 -0.6650
vn -0.0780 0.0000 -0.9970
vn -0.0509 0.8185 -0.5722
vn -0.7291 0.4990 -0.4684
vn -0.5352 0.8448 -0.0000
vn -0.0309 0.9995 -0.0000
vn 0.1730 0.9849 -0.0000
vn -0.0509 0.8185 0.5722
vn -0.7291 0.4990 0.4684
vn -0.7469 0.0000 0.6650
vn -0.7291 -0.4990 0.4684
vn -0.0509 -0.8185 0.5722
vn -0.0309 -0.9995 -0.0000
vn -0.0509 -0.8185 -0.5722
vn 0.2332 0.0000 -0.9724
vn 0.3165 0.7004 -0.6398
vn 0.5389 0.8424 -0.0000
vn 0.5754 0.0000 -0.8178
vn 0.3165 -0.7004 -0.6398
vn 0.5389 -0.8424 -0.0000
vn 0.1730 -0.9849 -0.0000
vn 0.3165 -0.7004 0.6398
vn 0.5754 0.0000 0.8178
vn 0.2332 0.0000 0.9724
vn -0.0780 0.0000 0.9970
vn 0.3165 0.7004 0.6398
vn 0.6647 -0.5169 0.5394
vn 0.3269 -0.8839 0.3344
vn 0.4543 -0.5006 0.7369
vn 0.1810 -0.8876 0.4236
vn 0.1874 -0.4534 0.8714
vn 0.4641 0.0373 0.8850
vn 0.2048 0.1632 0.9651
vn -0.1372 0.0931 0.9862
vn -0.1718 -0.5253 0.8334
vn -0.0040 -0.8725 0.4886
vn -0.4356 -0.6119 0.6602
vn -0.4957 0.0275 0.8680
vn -0.7793 0.1079 0.6173
vn -0.6627 -0.6075 0.4380
vn -0.7890 -0.5663 0.2381
vn -0.8289 -0.5594 -0.0000
vn -0.7890 -0.5663 -0.2381
vn -0.9998 0.0222 -0.0000
vn -0.9625 0.0737 0.2611
vn -0.8636 0.4338 0.2568
vn -0.9418 0.3361 -0.0000
vn -0.9625 0.0737 -0.2611
vn -0.6627 -0.6075 -0.4380
vn -0.4356 -0.6119 -0.6602
vn -0.1718 -0.5253 -0.8334
vn -0.1372 0.0931 -0.9862
vn -0.4957 0.0275 -0.8680
vn -0.7749 0.1122 -0.6221
vn -0.8636 0.4338 -0.2568
vn -0.6948 0.4755 -0.5397
vn -0.4703 0.4323 -0.7694
vn -0.1172 0.4901 -0.8637
vn 0.2048 0.1632 -0.9651
vn 0.4641 0.0373 -0.8850
vn 0.4674 0.4287 -0.7731
vn 0.1904 0.5013 -0.8441
vn 0.0159 0.5878 -0.8089
vn 0.3835 0.5513 -0.7409
vn 0.4346 0.4955 -0.7521
vn 0.0000 0.5115 -0.8593
vn -0.4157 0.5874 -0.6943
vn -0.7554 0.5244 -0.3930
vn -0.4307 0.4945 -0.7549
vn -0.3717 0.6315 -0.6805
vn -0.7721 0.4789 -0.4178
vn -0.8705 0.4923 -0.0000
vn -0.7554 0.5244 0.3930
vn -0.6948 0.4755 0.5397
vn -0.4157 0.5874 0.6943
vn -0.4307 0.4945 0.7549
vn 0.0000 0.5115 0.8593
vn 0.0159 0.5878 0.8089
vn 0.4346 0.4955 0.7521
vn 0.3835 0.5513 0.7409
vn 0.1904 0.5013 0.8441
vn 0.4674 0.4287 0.7731
vn -0.1172 0.4901 0.8637
vn -0.4703 0.4323 0.7694
vn 0.8679 0.1129 0.4838
vn 0.8647 0.4229 0.2711
vn 0.6755 0.4617 0.5749
vn 0.9761 0.0401 0.2136
vn 0.9907 0.1359 -0.0000
vn 0.9761 0.0401 -0.2136
vn 0.8679 0.1129 -0.4838
vn 0.6811 0.1136 -0.7233
vn 0.6755 0.4617 -0.5749
vn 0.8647 0.4229 -0.2711
vn 0.9034 0.4288 -0.0000
vn 0.8643 0.5030 -0.0000
vn 0.7943 0.5043 -0.3388
vn 0.7738 0.4760 -0.4180
vn 0.7738 0.4760 0.4180
vn 0.7943 0.5043 0.3388
vn 0.6239 0.4967 0.6034
vn 0.6811 0.1136 0.7233
vn -0.7721 0.4789 0.4178
vn -0.3717 0.6315 0.6805
vn -0.6269 0.7034 0.3350
vn -0.2712 0.8894 0.3679
vn -0.4429 0.8966 -0.0000
vn 0.0000 1.0000 -0.0000
vn 0.0000 0.9080 0.4191
vn 0.2712 0.8894 0.3679
vn 0.4251 0.9052 -0.0000
vn 0.2712 0.8894 -0.3679
vn -0.0000 0.9080 -0.4191
vn -0.2712 0.8894 -0.3679
vn -0.6269 0.7034 -0.3350
vn -0.7985 0.6020 -0.0000
vn -0.9014 0.4330 -0.0000
vn 0.0000 0.7179 -0.6961
vn 0.3717 0.6315 -0.6805
vn 0.6078 0.7078 0.3599
vn 0.3717 0.6315 0.6805
vn 0.7804 0.6253 -0.0000
vn 0.6078 0.7078 -0.3599
vn 0.6239 0.4967 -0.6034
vn 0.0000 0.7179 0.6961
vn 0.3919 -0.0299 0.9195
vn 0.6093 0.0342 0.7922
vn 0.0264 0.6921 0.7213
vn 0.4893 -0.7046 0.5140
vn 0.3784 -0.7344 0.5635
vn 0.7344 -0.0041 0.6787
vn 0.4067 0.7915 0.4562
vn 0.6576 0.7263 0.2002
vn 0.7655 -0.0987 0.6358
vn 0.2575 -0.7232 0.6408
vn 0.0664 -0.6937 0.7172
vn -0.0636 -0.7762 0.6273
vn 0.8786 -0.1038 0.4662
vn 0.0569 -0.9929 0.1040
vn 0.7507 0.5997 -0.2771
vn -0.7232 0.0845 -0.6855
vn -0.7079 -0.0055 -0.7063
vn -0.6181 -0.0275 -0.7856
vn -0.5140 -0.0259 -0.8574
vn -0.4729 -0.0188 -0.8809
vn 0.8148 0.5795 0.0154
vn 0.9028 0.4294 0.0258
vn 0.2551 -0.1029 0.9614
vn 0.3919 -0.0299 -0.9195
vn 0.0264 0.6921 -0.7213
vn 0.6093 0.0342 -0.7922
vn 0.4893 -0.7046 -0.5140
vn 0.3784 -0.7344 -0.5635
vn 0.7344 -0.0041 -0.6787
vn 0.2575 -0.7232 -0.6408
vn 0.7655 -0.0987 -0.6358
vn 0.0664 -0.6937 -0.7172
vn -0.0636 -0.7762 -0.6273
vn 0.8786 -0.1038 -0.4662
vn 0.8148 0.5795 -0.0154
vn 0.9027 0.4294 -0.0258
vn 0.7507 0.5997 0.2771
vn 0.0569 -0.9929 -0.1040
vn -0.7232 0.0845 0.6855
vn -0.7079 -0.0055 0.7063
vn -0.6181 -0.0275 0.7856
vn -0.5140 -0.0259 0.8574
vn -0.4729 -0.0188 0.8809
vn 0.4067 0.7915 -0.4562
vn 0.6576 0.7263 -0.2002
vn 0.2551 -0.1029 -0.9614
vn -0.2742 -0.9535 0.1254
vn -0.7216 -0.6138 0.3203
vn -0.2742 -0.9535 -0.1254
vn -0.3689 -0.5889 0.7191
vn -0.1475 -0.9424 0.3002
vn 0.0000 -0.5823 0.8130
vn 0.0000 -0.9366 0.3505
vn 0.3689 -0.5889 0.7191
vn 0.1475 -0.9424 0.3002
vn 0.7216 -0.6138 0.3203
vn 0.4701 -0.0815 0.8788
vn 0.0000 -0.1004 0.9949
vn -0.4701 -0.0815 0.8788
vn -0.7407 0.5964 0.3093
vn -0.9173 -0.0528 0.3948
vn -0.7407 0.5964 -0.3093
vn -0.9173 -0.0528 -0.3948
vn -0.4701 -0.0815 -0.8788
vn 0.0000 -0.1004 -0.9949
vn 0.4701 -0.0815 -0.8788
vn 0.9173 -0.0528 -0.3948
vn 0.7407 0.5964 -0.3093
vn 0.7407 0.5964 0.3093
vn 0.9173 -0.0528 0.3948
vn 0.0000 0.8974 0.4413
vn 0.3358 0.9419 -0.0000
vn -0.3358 0.9419 -0.0000
vn 0.0000 0.8974 -0.4413
vn -0.7216 -0.6138 -0.3203
vn 0.2742 -0.9535 -0.1254
vn 0.7216 -0.6138 -0.3203
vn 0.2742 -0.9535 0.1254
vn 0.3689 -0.5889 -0.7191
vn 0.1475 -0.9424 -0.3002
vn 0.0000 -0.5823 -0.8130
vn 0.0000 -0.9366 -0.3505
vn -0.3689 -0.5889 -0.7191
vn -0.1475 -0.9424 -0.3002
vn 0.0000 -1.0000 -0.0000
# 243 vertex normals

vt 2.0000 0.1434 0.0000
vt 2.0000 0.9000 0.0000
vt 0.6563 0.2000 0.0000
vt 0.4525 0.3753 0.0000
vt 0.8327 0.3812 0.0000
vt 0.3215 0.2000 0.0000
vt 0.4866 0.0000 0.0000
vt 0.0142 0.0000 0.0000
vt 0.0142 0.1823 0.0000
vt 0.9309 0.0000 0.0000
vt 0.9668 0.2000 0.0000
vt 1.3709 0.0000 0.0000
vt 1.3168 0.2000 0.0000
vt 1.1504 0.3812 0.0000
vt 0.0142 0.3730 0.0000
vt 0.0142 0.5732 0.0000
vt 0.5048 0.5732 0.0000
vt 0.4057 0.7959 0.0000
vt 0.0142 0.7959 0.0000
vt 0.7062 0.6095 0.0000
vt 0.7487 0.8833 0.0000
vt 0.9423 0.6459 0.0000
vt 0.3396 1.0000 0.0000
vt 0.6846 1.0000 0.0000
vt 0.0142 1.0000 0.0000
vt 2.0000 1.0000 0.0000
vt 2.0000 0.9545 0.0000
vt 2.0000 0.9121 0.0000
vt 2.0000 0.7273 0.0000
# 29 texture coords

g default
s 1
f 1/1/1 2/1/2 3/1/3 
f 4/1/4 2/1/2 1/1/1 
f 4/1/4 1/1/1 5/1/5 
f 4/1/4 5/1/5 6/1/6 
f 4/1/4 6/1/6 7/1/7 
f 4/1/4 7/1/7 8/1/8 
f 9/1/9 4/1/4 8/1/8 
f 9/1/9 8/1/8 10/1/10 
f 10/1/10 8/1/8 11/1/11 
f 10/1/10 11/1/11 12/1/12 
f 10/1/10 12/1/12 13/1/13 
f 10/1/10 13/1/13 14/1/14 
f 10/1/10 14/1/14 15/1/15 
f 14/1/14 16/1/16 15/1/15 
f 14/1/14 17/1/17 16/1/16 
f 18/1/18 17/1/17 14/1/14 
f 17/1/17 18/1/18 19/1/19 
f 20/1/20 17/1/17 19/1/19 
f 21/1/21 17/1/17 20/1/20 
f 21/1/21 20/1/20 22/1/22 
f 21/1/21 22/1/22 23/1/23 
f 23/1/23 22/1/22 24/1/24 
f 25/1/25 23/1/23 24/1/24 
f 23/1/23 25/1/25 26/1/26 
f 27/1/27 26/1/26 25/1/25 
f 25/1/25 28/1/28 27/1/27 
f 25/1/25 29/1/29 28/1/28 
f 25/1/25 24/1/24 29/1/29 
f 3/1/3 2/1/2 30/1/30 
f 9/1/9 2/1/2 4/1/4 
f 9/1/9 10/1/10 15/1/15 
f 16/1/16 30/1/30 15/1/15 
f 30/1/30 26/1/26 3/1/3 
f 30/1/30 16/1/16 26/1/26 
f 26/1/26 16/1/16 23/1/23 
f 23/1/23 16/1/16 21/1/21 
f 16/1/16 17/1/17 21/1/21 
f 31/2/31 32/2/32 33/2/33 
f 32/2/32 31/2/31 34/2/34 
f 34/2/34 35/2/35 32/2/32 
f 36/2/36 35/2/35 34/2/34 
f 37/2/37 36/2/36 34/2/34 
f 34/2/34 31/2/31 37/2/37 
f 37/2/37 31/2/31 38/2/38 
f 36/2/36 37/2/37 38/2/38 
f 36/2/36 38/2/38 39/2/39 
f 39/2/39 40/2/40 36/2/36 
f 39/2/39 41/2/41 40/2/40 
f 41/2/41 39/2/39 38/2/38 
f 41/2/41 38/2/38 42/2/42 
f 42/2/42 43/2/43 41/2/41 
f 43/2/43 42/2/42 31/2/31 
f 44/2/44 43/2/43 31/2/31 
f 31/2/31 33/2/33 44/2/44 
f 33/2/33 45/2/45 44/2/44 
f 33/2/33 46/2/46 45/2/45 
f 33/2/33 47/2/47 46/2/46 
f 33/2/33 32/2/32 47/2/47 
f 35/2/35 47/2/47 32/2/32 
f 35/2/35 48/2/48 47/2/47 
f 49/2/49 48/2/48 35/2/35 
f 36/2/36 49/2/49 35/2/35 
f 40/2/40 49/2/49 36/2/36 
f 49/2/49 40/2/40 30/2/50 
f 2/2/51 49/2/49 30/2/50 
f 2/2/51 48/2/48 49/2/49 
f 50/2/52 48/2/48 2/2/51 
f 9/2/53 50/2/52 2/2/51 
f 9/2/53 51/2/54 50/2/52 
f 9/2/53 52/2/55 51/2/54 
f 9/2/53 15/2/56 52/2/55 
f 52/2/55 15/2/56 53/2/57 
f 45/2/45 52/2/55 53/2/57 
f 54/2/58 45/2/45 53/2/57 
f 44/2/44 45/2/45 54/2/58 
f 43/2/43 44/2/44 54/2/58 
f 43/2/43 54/2/58 41/2/41 
f 41/2/41 54/2/58 55/2/59 
f 40/2/40 41/2/41 55/2/59 
f 55/2/59 30/2/50 40/2/40 
f 15/2/56 30/2/50 55/2/59 
f 15/2/56 55/2/59 53/2/57 
f 54/2/58 53/2/57 55/2/59 
f 48/2/48 50/2/52 47/2/47 
f 47/2/47 50/2/52 51/2/54 
f 47/2/47 51/2/54 46/2/46 
f 45/2/45 46/2/46 51/2/54 
f 45/2/45 51/2/54 52/2/55 
f 42/2/42 38/2/38 31/2/31 
f 27/1/27 28/1/28 56/1/60 
f 57/1/61 27/1/27 56/1/60 
f 57/1/61 56/1/60 58/1/62 
f 57/1/61 58/1/62 59/1/63 
f 58/1/62 60/1/64 59/1/63 
f 60/1/64 58/1/62 61/1/65 
f 60/1/64 61/1/65 62/1/66 
f 60/1/64 62/1/66 63/1/67 
f 64/1/68 60/1/64 63/1/67 
f 65/1/69 60/1/64 64/1/68 
f 59/1/63 60/1/64 65/1/69 
f 65/1/69 1/1/1 59/1/63 
f 1/1/1 65/1/69 5/1/5 
f 65/1/69 64/1/68 5/1/5 
f 64/1/68 66/1/70 5/1/5 
f 66/1/70 64/1/68 67/1/71 
f 66/1/70 67/1/71 68/1/72 
f 69/1/73 66/1/70 68/1/72 
f 6/1/6 66/1/70 69/1/73 
f 66/1/70 6/1/6 5/1/5 
f 7/1/7 6/1/6 69/1/73 
f 7/1/7 69/1/73 70/1/74 
f 7/1/7 70/1/74 71/1/75 
f 8/1/8 7/1/7 71/1/75 
f 8/1/8 71/1/75 11/1/11 
f 71/1/75 72/1/76 11/1/11 
f 71/1/75 73/1/77 72/1/76 
f 71/1/75 70/1/74 73/1/77 
f 70/1/74 74/1/78 73/1/77 
f 70/1/74 69/1/73 74/1/78 
f 69/1/73 68/1/72 74/1/78 
f 75/1/79 74/1/78 68/1/72 
f 74/1/78 75/1/79 76/1/80 
f 73/1/77 74/1/78 76/1/80 
f 73/1/77 76/1/80 77/1/81 
f 73/1/77 77/1/81 72/1/76 
f 72/1/76 77/1/81 78/1/82 
f 11/1/11 72/1/76 78/1/82 
f 11/1/11 78/1/82 12/1/12 
f 12/1/12 78/1/82 79/1/83 
f 79/1/83 13/1/13 12/1/12 
f 80/1/84 13/1/13 79/1/83 
f 18/1/18 13/1/13 80/1/84 
f 18/1/18 80/1/84 19/1/19 
f 80/1/84 81/1/85 19/1/19 
f 80/1/84 82/1/86 81/1/85 
f 79/1/83 82/1/86 80/1/84 
f 83/1/87 82/1/86 79/1/83 
f 78/1/82 83/1/87 79/1/83 
f 77/1/81 83/1/87 78/1/82 
f 83/1/87 77/1/81 84/1/88 
f 85/1/89 83/1/87 84/1/88 
f 83/1/87 85/1/89 86/1/90 
f 83/1/87 86/1/90 82/1/86 
f 82/1/86 86/1/90 81/1/85 
f 81/1/85 86/1/90 87/1/91 
f 81/1/85 87/1/91 88/1/92 
f 19/1/19 81/1/85 88/1/92 
f 19/1/19 88/1/92 89/1/93 
f 19/1/19 89/1/93 20/1/20 
f 88/1/92 90/1/94 89/1/93 
f 88/1/92 91/1/95 90/1/94 
f 88/1/92 87/1/91 91/1/95 
f 92/1/96 91/1/95 87/1/91 
f 93/1/97 91/1/95 92/1/96 
f 93/1/97 92/1/96 94/1/98 
f 92/1/96 95/1/99 94/1/98 
f 92/1/96 96/1/100 95/1/99 
f 87/1/91 96/1/100 92/1/96 
f 87/1/91 86/1/90 96/1/100 
f 86/1/90 85/1/89 96/1/100 
f 96/1/100 85/1/89 97/1/101 
f 96/1/100 97/1/101 98/1/102 
f 96/1/100 98/1/102 95/1/99 
f 98/1/102 99/1/103 95/1/99 
f 100/1/104 99/1/103 98/1/102 
f 97/1/101 100/1/104 98/1/102 
f 97/1/101 101/1/105 100/1/104 
f 84/1/88 101/1/105 97/1/101 
f 97/1/101 85/1/89 84/1/88 
f 77/1/81 76/1/80 84/1/88 
f 84/1/88 76/1/80 101/1/105 
f 75/1/79 101/1/105 76/1/80 
f 75/1/79 102/1/106 101/1/105 
f 102/1/106 75/1/79 103/1/107 
f 104/1/108 102/1/106 103/1/107 
f 104/1/108 105/1/109 102/1/106 
f 106/1/110 105/1/109 104/1/108 
f 107/1/111 106/1/110 104/1/108 
f 108/1/112 106/1/110 107/1/111 
f 109/1/113 108/1/112 107/1/111 
f 109/1/113 107/1/111 110/1/114 
f 111/1/115 109/1/113 110/1/114 
f 62/1/66 111/1/115 110/1/114 
f 62/1/66 61/1/65 111/1/115 
f 62/1/66 110/1/114 112/1/116 
f 63/1/67 62/1/66 112/1/116 
f 63/1/67 112/1/116 113/1/117 
f 67/1/71 63/1/67 113/1/117 
f 64/1/68 63/1/67 67/1/71 
f 68/1/72 67/1/71 113/1/117 
f 68/1/72 113/1/117 103/1/107 
f 103/1/107 75/1/79 68/1/72 
f 113/1/117 104/1/108 103/1/107 
f 112/1/116 104/1/108 113/1/117 
f 112/1/116 107/1/111 104/1/108 
f 107/1/111 112/1/116 110/1/114 
f 114/3/118 115/4/119 116/5/120 
f 114/3/118 117/6/121 115/4/119 
f 28/7/28 117/6/121 114/3/118 
f 28/7/28 29/8/29 117/6/121 
f 29/8/29 118/9/122 117/6/121 
f 29/8/29 119/6/123 118/9/122 
f 24/7/24 119/6/123 29/8/29 
f 24/7/24 120/3/124 119/6/123 
f 22/10/22 120/3/124 24/7/24 
f 22/10/22 121/11/125 120/3/124 
f 20/12/20 121/11/125 22/10/22 
f 20/12/20 89/13/93 121/11/125 
f 89/13/93 90/14/94 121/11/125 
f 121/11/125 90/14/94 122/5/126 
f 121/11/125 122/5/126 120/3/124 
f 120/3/124 122/5/126 123/4/127 
f 120/3/124 123/4/127 119/6/123 
f 123/4/127 118/9/122 119/6/123 
f 124/15/128 118/9/122 123/4/127 
f 124/15/128 115/4/119 118/9/122 
f 124/15/128 125/16/129 115/4/119 
f 124/15/128 123/4/127 125/16/129 
f 125/16/129 123/4/127 126/17/130 
f 125/16/129 126/17/130 127/18/131 
f 125/16/129 127/18/131 128/19/128 
f 125/16/129 128/19/128 129/18/132 
f 125/16/129 129/18/132 130/17/133 
f 125/16/129 130/17/133 115/4/119 
f 115/4/119 130/17/133 116/5/120 
f 130/17/133 131/20/134 116/5/120 
f 130/17/133 129/18/132 131/20/134 
f 131/20/134 129/18/132 108/21/112 
f 131/20/134 108/21/112 109/22/113 
f 131/20/134 109/22/113 116/5/120 
f 109/22/113 111/14/115 116/5/120 
f 132/11/135 116/5/120 111/14/115 
f 61/13/65 132/11/135 111/14/115 
f 58/12/62 132/11/135 61/13/65 
f 58/12/62 56/10/60 132/11/135 
f 56/10/60 114/3/118 132/11/135 
f 56/10/60 28/7/28 114/3/118 
f 132/11/135 114/3/118 116/5/120 
f 102/1/106 133/1/136 101/1/105 
f 105/1/109 133/1/136 102/1/106 
f 133/1/136 105/1/109 134/1/137 
f 134/1/137 135/1/138 133/1/136 
f 135/1/138 134/1/137 136/1/139 
f 137/1/140 135/1/138 136/1/139 
f 138/1/141 137/1/140 136/1/139 
f 138/1/141 136/1/139 139/1/142 
f 138/1/141 139/1/142 140/1/143 
f 138/1/141 140/1/143 141/1/144 
f 138/1/141 141/1/144 142/1/145 
f 138/1/141 142/1/145 143/1/146 
f 138/1/141 143/1/146 144/1/147 
f 138/1/141 144/1/147 137/1/140 
f 137/1/140 144/1/147 145/1/148 
f 137/1/140 145/1/148 146/1/149 
f 137/1/140 146/1/149 135/1/138 
f 135/1/138 146/1/149 133/1/136 
f 147/1/150 133/1/136 146/1/149 
f 133/1/136 147/1/150 101/1/105 
f 101/1/105 147/1/150 100/1/104 
f 147/1/150 146/1/149 100/1/104 
f 145/1/148 100/1/104 146/1/149 
f 99/1/103 100/1/104 145/1/148 
f 145/1/148 144/1/147 99/1/103 
f 144/1/147 148/1/151 99/1/103 
f 144/1/147 143/1/146 148/1/151 
f 143/1/146 142/1/145 148/1/151 
f 148/1/151 142/1/145 149/1/152 
f 149/1/152 95/1/99 148/1/151 
f 95/1/99 149/1/152 94/1/98 
f 148/1/151 95/1/99 99/1/103 
f 150/23/153 151/24/154 129/18/132 
f 152/25/155 150/23/153 129/18/132 
f 129/18/132 128/19/128 152/25/155 
f 127/18/131 152/25/155 128/19/128 
f 152/25/155 127/18/131 153/23/156 
f 153/23/156 127/18/131 149/24/152 
f 94/21/98 149/24/152 127/18/131 
f 154/20/157 94/21/98 127/18/131 
f 126/17/130 154/20/157 127/18/131 
f 126/17/130 122/5/126 154/20/157 
f 123/4/127 122/5/126 126/17/130 
f 93/22/97 122/5/126 90/14/94 
f 154/20/157 122/5/126 93/22/97 
f 154/20/157 93/22/97 94/21/98 
f 155/1/158 134/1/137 106/1/110 
f 136/1/139 134/1/137 155/1/158 
f 136/1/139 155/1/158 139/1/142 
f 139/1/142 155/1/158 140/1/143 
f 155/1/158 151/1/154 140/1/143 
f 151/1/154 155/1/158 106/1/110 
f 106/1/110 108/1/112 151/1/154 
f 105/1/109 106/1/110 134/1/137 
f 140/1/143 150/1/153 141/1/144 
f 140/1/143 151/1/154 150/1/153 
f 150/1/153 152/1/155 141/1/144 
f 153/1/156 141/1/144 152/1/155 
f 142/1/145 141/1/144 153/1/156 
f 142/1/145 153/1/156 149/1/152 
f 108/21/112 129/18/132 151/24/154 
f 27/1/27 57/1/61 3/1/3 
f 26/1/26 27/1/27 3/1/3 
f 156/26/159 157/26/160 158/26/161 
f 157/26/160 156/26/159 159/26/162 
f 160/26/163 157/26/160 159/26/162 
f 161/26/164 157/26/160 160/26/163 
f 157/26/160 161/26/164 162/26/165 
f 157/26/160 162/26/165 158/26/161 
f 161/26/164 163/26/166 162/26/165 
f 161/26/164 164/26/167 163/26/166 
f 164/26/167 161/26/164 165/26/168 
f 166/26/169 164/26/167 165/26/168 
f 166/26/169 167/26/170 164/26/167 
f 167/26/170 168/26/171 164/26/167 
f 169/26/172 168/26/171 167/26/170 
f 169/26/172 170/26/173 168/26/171 
f 171/26/87 170/26/173 169/26/172 
f 167/26/87 171/26/87 169/26/172 
f 167/26/87 166/26/174 171/26/87 
f 166/26/174 172/26/174 171/26/87 
f 166/26/174 165/26/175 172/26/174 
f 165/26/175 163/26/175 172/26/174 
f 165/26/175 160/26/176 163/26/175 
f 160/26/176 162/26/176 163/26/175 
f 160/26/176 159/26/177 162/26/176 
f 159/26/177 158/26/177 162/26/176 
f 173/26/178 158/26/177 159/26/177 
f 164/26/167 172/26/179 163/26/166 
f 172/26/179 164/26/167 168/26/171 
f 171/26/180 172/26/179 168/26/171 
f 170/26/173 171/26/180 168/26/171 
f 165/26/168 161/26/164 160/26/163 
f 173/26/181 156/26/159 158/26/161 
f 173/26/181 159/26/162 156/26/159 
f 1/1/1 3/1/3 59/1/63 
f 3/1/3 57/1/61 59/1/63 
f 90/1/94 91/1/95 93/1/97 
f 174/26/182 175/26/183 176/26/184 
f 177/26/185 174/26/182 176/26/184 
f 178/26/186 177/26/185 176/26/184 
f 178/26/186 176/26/184 179/26/187 
f 180/26/188 178/26/186 179/26/187 
f 180/26/188 179/26/187 181/26/189 
f 182/26/190 180/26/188 181/26/189 
f 182/26/190 181/26/189 183/26/191 
f 181/26/189 184/26/192 183/26/191 
f 184/26/192 181/26/189 185/26/193 
f 186/26/194 184/26/192 185/26/193 
f 187/26/195 184/26/192 186/26/194 
f 188/26/196 184/26/192 187/26/195 
f 188/26/196 183/26/191 184/26/192 
f 183/26/72 188/26/196 186/26/72 
f 183/26/72 186/26/72 182/26/197 
f 186/26/72 185/26/197 182/26/197 
f 182/26/197 185/26/197 180/26/198 
f 185/26/197 189/26/198 180/26/198 
f 180/26/198 189/26/198 178/26/199 
f 189/26/198 190/26/199 178/26/199 
f 178/26/199 190/26/199 177/26/200 
f 190/26/199 175/26/200 177/26/200 
f 191/26/201 177/26/200 175/26/200 
f 175/26/183 190/26/202 176/26/184 
f 176/26/184 190/26/202 179/26/187 
f 190/26/202 189/26/203 179/26/187 
f 179/26/187 189/26/203 181/26/189 
f 189/26/203 185/26/193 181/26/189 
f 188/26/196 187/26/195 186/26/72 
f 191/26/204 175/26/183 174/26/182 
f 191/26/204 174/26/182 177/26/185 
f 14/1/14 13/1/13 18/1/18 
f 118/9/122 115/4/119 117/6/121 
f 192/27/205 193/27/206 194/27/207 
f 195/27/208 193/27/206 192/27/205 
f 196/27/209 195/27/208 192/27/205 
f 197/27/210 195/27/208 196/27/209 
f 198/27/211 197/27/210 196/27/209 
f 199/27/212 197/27/210 198/27/211 
f 200/27/213 199/27/212 198/27/211 
f 199/27/212 200/27/213 201/27/214 
f 202/27/215 199/27/212 201/27/214 
f 199/27/212 202/27/215 197/27/210 
f 202/27/215 203/27/216 197/27/210 
f 203/27/216 202/27/215 204/27/110 
f 203/27/216 204/27/110 205/27/137 
f 206/27/217 203/27/216 205/27/137 
f 206/27/217 205/27/137 207/27/218 
f 208/27/219 206/27/217 207/27/218 
f 208/27/219 207/27/218 209/27/220 
f 210/27/221 208/27/219 209/27/220 
f 210/27/221 209/27/220 211/27/103 
f 212/27/222 210/27/221 211/27/103 
f 212/27/222 211/27/103 213/27/99 
f 214/27/223 212/27/222 213/27/99 
f 214/27/223 213/27/99 215/27/152 
f 216/27/224 214/27/223 215/27/152 
f 217/27/225 216/27/224 215/27/152 
f 218/27/226 217/27/225 215/27/152 
f 217/27/225 218/27/226 219/27/227 
f 220/27/228 217/27/225 219/27/227 
f 220/27/228 219/27/227 221/27/154 
f 202/27/215 220/27/228 221/27/154 
f 202/27/215 221/27/154 204/27/110 
f 222/27/229 204/27/110 221/27/154 
f 223/27/230 222/27/229 221/27/154 
f 224/27/141 222/27/229 223/27/230 
f 224/27/141 225/27/231 222/27/229 
f 224/27/141 226/27/232 225/27/231 
f 224/27/141 223/27/230 226/27/232 
f 226/27/232 223/27/230 215/27/152 
f 226/27/232 215/27/152 213/27/99 
f 226/27/232 213/27/99 211/27/103 
f 225/27/231 226/27/232 211/27/103 
f 225/27/231 211/27/103 209/27/220 
f 209/27/220 207/27/218 225/27/231 
f 225/27/231 207/27/218 205/27/137 
f 222/27/229 225/27/231 205/27/137 
f 222/27/229 205/27/137 204/27/110 
f 193/27/206 227/27/233 194/27/207 
f 193/27/206 208/27/219 227/27/233 
f 206/27/217 208/27/219 193/27/206 
f 195/27/208 206/27/217 193/27/206 
f 203/27/216 206/27/217 195/27/208 
f 197/27/210 203/27/216 195/27/208 
f 228/27/234 229/27/235 230/27/236 
f 231/27/237 229/27/235 228/27/234 
f 232/27/238 231/27/237 228/27/234 
f 233/27/239 231/27/237 232/27/238 
f 234/27/240 233/27/239 232/27/238 
f 235/27/241 233/27/239 234/27/240 
f 236/27/242 235/27/241 234/27/240 
f 235/27/241 236/27/242 194/27/207 
f 227/27/233 235/27/241 194/27/207 
f 212/27/222 235/27/241 227/27/233 
f 235/27/241 212/27/222 233/27/239 
f 212/27/222 214/27/223 233/27/239 
f 233/27/239 214/27/223 231/27/237 
f 214/27/223 216/27/224 231/27/237 
f 231/27/237 216/27/224 229/27/235 
f 216/27/224 217/27/225 229/27/235 
f 229/27/235 217/27/225 201/27/214 
f 229/27/235 201/27/214 230/27/236 
f 200/27/213 230/27/236 201/27/214 
f 217/27/225 220/27/228 201/27/214 
f 220/27/228 202/27/215 201/27/214 
f 219/27/227 218/27/226 223/27/230 
f 223/27/230 221/27/154 219/27/227 
f 218/27/226 215/27/152 223/27/230 
f 237/28/243 198/29/211 196/29/209 
f 237/28/243 200/29/213 198/29/211 
f 230/29/236 200/29/213 237/28/243 
f 237/28/243 228/29/234 230/29/236 
f 232/29/238 228/29/234 237/28/243 
f 234/29/240 232/29/238 237/28/243 
f 236/29/242 234/29/240 237/28/243 
f 237/28/243 194/29/207 236/29/242 
f 192/29/205 194/29/207 237/28/243 
f 196/29/209 192/29/205 237/28/243 
f 210/27/221 212/27/222 227/27/233 
f 208/27/219 210/27/221 227/27/233 
f 238/27/207 239/27/205 240/27/233 
f 238/27/207 240/27/233 241/27/241 
f 242/27/242 238/27/207 241/27/241 
f 242/27/242 241/27/241 243/27/239 
f 244/27/240 242/27/242 243/27/239 
f 244/27/240 243/27/239 245/27/237 
f 246/27/238 244/27/240 245/27/237 
f 245/27/237 247/27/235 246/27/238 
f 247/27/235 245/27/237 248/27/224 
f 249/27/225 247/27/235 248/27/224 
f 248/27/224 250/27/152 249/27/225 
f 251/27/99 250/27/152 248/27/224 
f 252/27/223 251/27/99 248/27/224 
f 253/27/103 251/27/99 252/27/223 
f 254/27/222 253/27/103 252/27/223 
f 255/27/220 253/27/103 254/27/222 
f 256/27/221 255/27/220 254/27/222 
f 257/27/218 255/27/220 256/27/221 
f 258/27/219 257/27/218 256/27/221 
f 259/27/137 257/27/218 258/27/219 
f 260/27/217 259/27/137 258/27/219 
f 261/27/110 259/27/137 260/27/217 
f 262/27/216 261/27/110 260/27/217 
f 263/27/154 261/27/110 262/27/216 
f 264/27/215 263/27/154 262/27/216 
f 263/27/154 264/27/215 265/27/228 
f 266/27/227 263/27/154 265/27/228 
f 267/27/226 266/27/227 265/27/228 
f 249/27/225 267/27/226 265/27/228 
f 250/27/152 267/27/226 249/27/225 
f 268/27/230 267/27/226 250/27/152 
f 268/27/230 250/27/152 269/27/232 
f 270/27/141 268/27/230 269/27/232 
f 270/27/141 269/27/232 271/27/231 
f 270/27/141 271/27/231 272/27/229 
f 270/27/141 272/27/229 268/27/230 
f 272/27/229 263/27/154 268/27/230 
f 272/27/229 261/27/110 263/27/154 
f 272/27/229 259/27/137 261/27/110 
f 271/27/231 259/27/137 272/27/229 
f 271/27/231 257/27/218 259/27/137 
f 257/27/218 271/27/231 255/27/220 
f 271/27/231 253/27/103 255/27/220 
f 269/27/232 253/27/103 271/27/231 
f 269/27/232 251/27/99 253/27/103 
f 269/27/232 250/27/152 251/27/99 
f 239/27/205 273/27/206 240/27/233 
f 273/27/206 239/27/205 274/27/208 
f 273/27/206 274/27/208 260/27/217 
f 258/27/219 273/27/206 260/27/217 
f 273/27/206 258/27/219 256/27/221 
f 240/27/233 273/27/206 256/27/221 
f 240/27/233 256/27/221 254/27/222 
f 241/27/241 240/27/233 254/27/222 
f 241/27/241 254/27/222 252/27/223 
f 243/27/239 241/27/241 252/27/223 
f 243/27/239 252/27/223 248/27/224 
f 245/27/237 243/27/239 248/27/224 
f 275/27/236 276/27/234 277/27/214 
f 275/27/236 277/27/214 278/27/212 
f 279/27/213 275/27/236 278/27/212 
f 279/27/213 278/27/212 280/27/210 
f 281/27/211 279/27/213 280/27/210 
f 281/27/211 280/27/210 274/27/208 
f 282/27/209 281/27/211 274/27/208 
f 239/27/205 282/27/209 274/27/208 
f 274/27/208 280/27/210 260/27/217 
f 280/27/210 262/27/216 260/27/217 
f 280/27/210 278/27/212 262/27/216 
f 278/27/212 264/27/215 262/27/216 
f 278/27/212 277/27/214 264/27/215 
f 277/27/214 265/27/228 264/27/215 
f 277/27/214 247/27/235 265/27/228 
f 276/27/234 247/27/235 277/27/214 
f 247/27/235 276/27/234 246/27/238 
f 247/27/235 249/27/225 265/27/228 
f 267/27/226 268/27/230 266/27/227 
f 266/27/227 268/27/230 263/27/154 
f 283/28/243 242/29/242 244/29/240 
f 283/28/243 244/29/240 246/29/238 
f 276/29/234 283/28/243 246/29/238 
f 283/28/243 276/29/234 275/29/236 
f 279/29/213 283/28/243 275/29/236 
f 281/29/211 283/28/243 279/29/213 
f 282/29/209 283/28/243 281/29/211 
f 283/28/243 282/29/209 239/29/205 
f 238/29/207 283/28/243 239/29/205 
f 242/29/242 283/28/243 238/29/207 
# 0 polygons - 546 triangles

