# Blender v2.77 (sub 0) OBJ File: ''
# www.blender.org
o polygon0
v 1.990411 -30.402075 -4.875520
v 4.789928 -30.402075 1.907410
v 4.789928 -30.402075 -2.065941
v -1.968705 -30.402075 4.716996
v -4.768225 -30.402075 -2.065939
v -4.768225 -30.402075 1.907413
v -1.968705 -30.402075 4.716996
v 0.010854 3.640806 5.112172
v 1.990413 -30.402075 4.716996
v -1.968705 3.640806 4.716998
v -3.646895 3.640806 3.591637
v -4.768225 -30.402075 1.907413
v -4.768225 3.640807 1.907416
v -5.161984 3.640807 -0.079260
v -4.768225 -30.402075 -2.065939
v -4.768225 3.640807 -2.065937
v -3.646896 3.640808 -3.750158
v -1.968709 -30.402075 -4.875520
v -1.968709 3.640808 -4.875518
v 0.010851 3.640808 -5.270695
v 1.990411 -30.402075 -4.875520
v 1.990411 3.640808 -4.875518
v 3.668599 3.640808 -3.750158
v 4.789928 -30.402075 -2.065941
v 4.789928 3.640807 -2.065938
v 5.183690 3.640807 -0.079263
v 4.789928 -30.402075 1.907410
v 4.789928 3.640807 1.907413
v 3.668599 3.640806 3.591635
v 1.990413 -30.402075 4.716996
v 1.990413 3.640806 4.716998
v 0.010854 3.640806 5.112172
v 1.990413 -30.402075 4.716996
v -1.968709 -30.402075 -4.875520
v 6.125317 -1.656065 -0.079264
v 7.225919 -1.697276 -0.079264
v 5.659881 -1.656065 2.269051
v 6.676705 -1.697276 -2.850276
v 5.659882 -1.656065 -2.427579
v 5.112675 -1.697275 -5.199427
v 4.334432 -1.656064 -4.418385
v 2.771938 -1.697275 -6.769082
v 2.350756 -1.656064 -5.748600
v 0.010851 -1.697275 -7.320269
v 0.010851 -1.656064 -6.215710
v -2.750236 -1.697275 -6.769080
v -2.329053 -1.656064 -5.748599
v -5.090972 -1.697275 -5.199423
v -4.312728 -1.656064 -4.418384
v -6.655001 -1.697276 -2.850272
v -5.638177 -1.656065 -2.427576
v -7.204214 -1.697276 -0.079260
v -6.103612 -1.656065 -0.079261
v -6.655000 -1.697276 2.691752
v -5.638175 -1.656065 2.269056
v -5.090968 -1.697277 5.040905
v -4.312726 -1.656066 4.259862
v -2.750232 -1.697277 6.610559
v -2.329050 -1.656066 5.590077
v 0.010855 -1.697277 7.161746
v 0.010854 -1.656066 6.057186
v 2.771941 -1.697277 6.610557
v 2.350759 -1.656066 5.590075
v 5.112676 -1.697277 5.040901
v 4.334433 -1.656066 4.259859
v 6.676705 -1.697276 2.691746
v 7.348208 3.461476 -0.079263
v 6.689699 3.640806 2.697147
v 6.789686 3.461476 2.738713
v 7.239982 3.640807 -0.079263
v 6.789686 3.461477 -2.897242
v 6.689699 3.640807 -2.855675
v 5.199146 3.461477 -5.286208
v 5.122619 3.640808 -5.209405
v 2.818736 3.461477 -6.882466
v 2.777320 3.640808 -6.782120
v 0.010851 3.461477 -7.442997
v 0.010851 3.640808 -7.334382
v -2.797034 3.461477 -6.882464
v -2.755618 3.640808 -6.782117
v -5.177444 3.461477 -5.286204
v -5.100916 3.640808 -5.209403
v -6.767982 3.461477 -2.897238
v -6.667994 3.640807 -2.855674
v -7.326503 3.461476 -0.079259
v -7.218277 3.640807 -0.079259
v -6.767981 3.461476 2.738719
v -6.667993 3.640806 2.697154
v -5.177439 3.461475 5.127687
v -5.100912 3.640806 5.050886
v -2.797029 3.461475 6.723947
v -2.755613 3.640806 6.623599
v 0.010855 3.461475 7.284475
v 0.010855 3.640806 7.175860
v 2.818739 3.461475 6.723945
v 2.777323 3.640806 6.623597
v 5.199147 3.461475 5.127685
v 5.122620 3.640806 5.050881
v 7.239982 3.640807 -0.079263
v 4.789928 3.640807 1.907413
v 6.689699 3.640806 2.697147
v 5.183690 3.640807 -0.079263
v 6.689699 3.640807 -2.855675
v 4.789928 3.640807 -2.065938
v 5.122619 3.640808 -5.209405
v 3.668599 3.640808 -3.750158
v 2.777320 3.640808 -6.782120
v 1.990411 3.640808 -4.875518
v 0.010851 3.640808 -7.334382
v 0.010851 3.640808 -5.270695
v -2.755618 3.640808 -6.782117
v -1.968709 3.640808 -4.875518
v -5.100916 3.640808 -5.209403
v -3.646896 3.640808 -3.750158
v -6.667994 3.640807 -2.855674
v -4.768225 3.640807 -2.065937
v -7.218277 3.640807 -0.079259
v -5.161984 3.640807 -0.079260
v -6.667993 3.640806 2.697154
v -4.768225 3.640807 1.907416
v -5.100912 3.640806 5.050886
v -3.646895 3.640806 3.591637
v -2.755613 3.640806 6.623599
v -1.968705 3.640806 4.716998
v 0.010855 3.640806 7.175860
v 0.010854 3.640806 5.112172
v 2.777323 3.640806 6.623597
v 1.990413 3.640806 4.716998
v 5.122620 3.640806 5.050881
v 3.668599 3.640806 3.591635
v 7.348208 -1.530595 -0.079264
v 6.789686 3.461476 2.738713
v 6.789686 -1.530595 2.738712
v 7.348208 3.461476 -0.079263
v 6.789686 -1.530594 -2.897242
v 6.789686 3.461477 -2.897242
v 5.199146 -1.530594 -5.286209
v 5.199146 3.461477 -5.286208
v 2.818736 -1.530594 -6.882467
v 2.818736 3.461477 -6.882466
v 0.010851 -1.530594 -7.442997
v 0.010851 3.461477 -7.442997
v -2.797034 -1.530594 -6.882465
v -2.797034 3.461477 -6.882464
v -5.177444 -1.530594 -5.286205
v -5.177444 3.461477 -5.286204
v -6.767982 -1.530594 -2.897239
v -6.767982 3.461477 -2.897238
v -7.326503 -1.530595 -0.079260
v -7.326503 3.461476 -0.079259
v -6.767981 -1.530595 2.738718
v -6.767981 3.461476 2.738719
v -5.177439 -1.530596 5.127687
v -5.177439 3.461475 5.127687
v -2.797029 -1.530596 6.723946
v -2.797029 3.461475 6.723947
v 0.010855 -1.530596 7.284474
v 0.010855 3.461475 7.284475
v 2.818739 -1.530596 6.723944
v 2.818739 3.461475 6.723945
v 5.199147 -1.530596 5.127684
v 5.199147 3.461475 5.127685
v 6.789686 -1.530595 2.738712
v 6.676705 -1.697276 2.691746
v 7.225919 -1.697276 -0.079264
v 5.112676 -1.697277 5.040901
v 5.199147 -1.530596 5.127684
v 2.771941 -1.697277 6.610557
v 2.818739 -1.530596 6.723944
v 0.010855 -1.697277 7.161746
v 0.010855 -1.530596 7.284474
v -2.750232 -1.697277 6.610559
v -2.797029 -1.530596 6.723946
v -5.090968 -1.697277 5.040905
v -5.177439 -1.530596 5.127687
v -6.655000 -1.697276 2.691752
v -6.767981 -1.530595 2.738718
v -7.204214 -1.697276 -0.079260
v -7.326503 -1.530595 -0.079260
v -6.655001 -1.697276 -2.850272
v -6.767982 -1.530594 -2.897239
v -5.090972 -1.697275 -5.199423
v -5.177444 -1.530594 -5.286205
v -2.750236 -1.697275 -6.769080
v -2.797034 -1.530594 -6.882465
v 0.010851 -1.697275 -7.320269
v 0.010851 -1.530594 -7.442997
v 2.771938 -1.697275 -6.769082
v 2.818736 -1.530594 -6.882467
v 5.112675 -1.697275 -5.199427
v 5.199146 -1.530594 -5.286209
v 6.676705 -1.697276 -2.850276
v 6.789686 -1.530594 -2.897242
v 7.348208 -1.530595 -0.079264
v -2.329050 -1.656066 5.590077
v -2.380004 -37.151543 5.620753
v -0.040099 -37.151543 6.087869
v -4.363683 -37.151543 4.290507
v -4.312726 -1.656066 4.259862
v -5.689133 -37.151543 2.299682
v -5.638175 -1.656065 2.269056
v -6.154570 -37.151543 -0.048655
v -6.103612 -1.656065 -0.079261
v -5.689135 -37.151543 -2.396990
v -5.638177 -1.656065 -2.427576
v -4.363686 -37.151543 -4.387811
v -4.312728 -1.656064 -4.418384
v -2.380008 -37.151543 -5.718041
v -2.329053 -1.656064 -5.748599
v -0.040102 -37.151543 -6.185146
v 0.010851 -1.656064 -6.215710
v 2.299802 -37.151543 -5.718041
v 2.350756 -1.656064 -5.748600
v 4.283476 -37.151543 -4.387811
v 4.334432 -1.656064 -4.418385
v 5.608926 -37.151543 -2.396996
v 5.659882 -1.656065 -2.427579
v 6.074362 -37.151543 -0.048655
v 6.125317 -1.656065 -0.079264
v 5.608925 -37.151543 2.299676
v 5.659881 -1.656065 2.269051
v 4.283478 -37.151543 4.290507
v 4.334433 -1.656066 4.259859
v 2.299805 -37.151543 5.620753
v 2.350759 -1.656066 5.590075
v 0.010854 -1.656066 6.057186
vt 1.5000 0.5325
vt 1.5000 0.5857
vt 1.2500 0.5325
vt 1.2500 0.5857
vt 1.2500 0.5325
vt 1.0000 0.5857
vt 1.0000 0.5325
vt 0.7500 0.5857
vt 0.7500 0.5325
vt 0.5000 0.5857
vt 0.5000 0.5325
vt 0.7500 0.5857
vt 0.7500 0.5325
vt 1.0000 0.5857
vt 1.0000 0.5325
vt 1.2500 0.5857
vt 1.2500 0.5325
vt 1.5000 0.5857
vt 1.5000 0.5325
vt 1.2500 0.5857
vt 1.2500 0.5325
vt 1.0000 0.5857
vt 1.0000 0.5325
vt 0.7500 0.5857
vt 0.7500 0.5325
vt 0.5000 0.5857
vt 0.5000 0.5325
vt 0.7500 0.5857
vt 0.7500 0.5325
vt 1.0000 0.5857
vt 1.0000 0.5325
vt 1.2500 0.5857
vt 1.5000 0.7877
vt 1.2500 0.7913
vt 1.2500 0.7877
vt 1.5000 0.7913
vt 1.2500 0.7877
vt 1.2500 0.7913
vt 1.0000 0.7877
vt 1.0000 0.7913
vt 0.7500 0.7877
vt 0.7500 0.7913
vt 0.5000 0.7877
vt 0.5000 0.7913
vt 0.7500 0.7877
vt 0.7500 0.7913
vt 1.0000 0.7877
vt 1.0000 0.7913
vt 1.2500 0.7877
vt 1.2500 0.7913
vt 1.5000 0.7877
vt 1.5000 0.7913
vt 1.2500 0.7877
vt 1.2500 0.7913
vt 1.0000 0.7877
vt 1.0000 0.7913
vt 0.7500 0.7877
vt 0.7500 0.7913
vt 0.5000 0.7877
vt 0.5000 0.7913
vt 0.7500 0.7877
vt 0.7500 0.7913
vt 1.0000 0.7877
vt 1.0000 0.7913
vt 1.5000 0.7913
vt 1.2504 0.8603
vt 1.2500 0.7913
vt 1.5000 0.8603
vt 1.2500 0.7913
vt 1.2504 0.8603
vt 1.0000 0.7913
vt 1.0000 0.8603
vt 0.7500 0.7913
vt 0.7504 0.8603
vt 0.5000 0.7913
vt 0.5000 0.8603
vt 0.7500 0.7913
vt 0.7504 0.8603
vt 1.0000 0.7913
vt 1.0000 0.8603
vt 1.2500 0.7913
vt 1.2504 0.8603
vt 1.5000 0.7913
vt 1.5000 0.8603
vt 1.2500 0.7913
vt 1.2504 0.8603
vt 1.0000 0.7913
vt 1.0000 0.8603
vt 0.7500 0.7913
vt 0.7504 0.8603
vt 0.5000 0.7913
vt 0.5000 0.8603
vt 0.7500 0.7913
vt 0.7504 0.8603
vt 1.0000 0.7913
vt 1.0000 0.8603
vt 1.5000 0.5916
vt 1.2500 0.7877
vt 1.2500 0.5916
vt 1.5000 0.7877
vt 1.2500 0.5916
vt 1.2500 0.7877
vt 1.0000 0.5916
vt 1.0000 0.7877
vt 0.7500 0.5916
vt 0.7500 0.7877
vt 0.5000 0.5916
vt 0.5000 0.7877
vt 0.7500 0.5916
vt 0.7500 0.7877
vt 1.0000 0.5916
vt 1.0000 0.7877
vt 1.2500 0.5916
vt 1.2500 0.7877
vt 1.5000 0.5916
vt 1.5000 0.7877
vt 1.2500 0.5916
vt 1.2500 0.7877
vt 1.0000 0.5916
vt 1.0000 0.7877
vt 0.7500 0.5916
vt 0.7500 0.7877
vt 0.5000 0.5916
vt 0.5000 0.7877
vt 0.7500 0.5916
vt 0.7500 0.7877
vt 1.0000 0.5916
vt 1.0000 0.7877
vt 1.2500 0.5916
vt 1.2500 0.5857
vt 1.5000 0.5857
vt 1.0000 0.5857
vt 1.0000 0.5916
vt 0.7500 0.5857
vt 0.7500 0.5916
vt 0.5000 0.5857
vt 0.5000 0.5916
vt 0.7500 0.5857
vt 0.7500 0.5916
vt 1.0000 0.5857
vt 1.0000 0.5916
vt 1.2500 0.5857
vt 1.2500 0.5916
vt 1.5000 0.5857
vt 1.5000 0.5916
vt 1.2500 0.5857
vt 1.2500 0.5916
vt 1.0000 0.5857
vt 1.0000 0.5916
vt 0.7500 0.5857
vt 0.7500 0.5916
vt 0.5000 0.5857
vt 0.5000 0.5916
vt 0.7500 0.5857
vt 0.7500 0.5916
vt 1.0000 0.5857
vt 1.0000 0.5916
vt 1.2500 0.5857
vt 1.2500 0.5916
vt 1.5000 0.5916
vt 0.7500 0.5325
vt 0.7500 0.0000
vt 0.5000 0.0000
vt 1.0000 0.0000
vt 1.0000 0.5325
vt 1.2500 0.0000
vt 1.2500 0.5325
vt 1.5000 0.0000
vt 1.5000 0.5325
vt 1.2500 0.0000
vt 1.2500 0.5325
vt 1.0000 0.0000
vt 1.0000 0.5325
vt 0.7500 0.0000
vt 0.7500 0.5325
vt 0.5000 0.0000
vt 0.5000 0.5325
vt 0.7500 0.0000
vt 0.7500 0.5325
vt 1.0000 0.0000
vt 1.0000 0.5325
vt 1.2500 0.0000
vt 1.2500 0.5325
vt 1.5000 0.0000
vt 1.5000 0.5325
vt 1.2500 0.0000
vt 1.2500 0.5325
vt 1.0000 0.0000
vt 1.0000 0.5325
vt 0.7500 0.0000
vt 0.7500 0.5325
vt 0.5000 0.5325
vt 0.6803 -0.0084
vt 0.9502 -0.0149
vt 0.9502 -0.0111
vt 0.2985 -0.0176
vt 0.0286 -0.0111
vt 0.0286 -0.0149
vt 1.3754 0.9959
vt 1.5000 0.8603
vt 1.5000 0.9959
vt 1.4353 0.8603
vt 1.3754 0.8603
vt 1.2504 0.9959
vt 1.3103 0.8603
vt 1.2504 0.8603
vt 1.1250 0.9959
vt 1.1849 0.8603
vt 1.1250 0.8603
vt 1.0000 0.9959
vt 1.0599 0.8603
vt 1.0000 0.8603
vt 0.8754 0.9959
vt 0.9353 0.8603
vt 0.8754 0.8603
vt 0.7504 0.9959
vt 0.8103 0.8603
vt 0.7504 0.8603
vt 0.6250 0.9959
vt 0.6849 0.8603
vt 0.6250 0.8603
vt 0.5000 0.9959
vt 0.5599 0.8603
vt 0.5000 0.8603
vt 0.6803 -0.0176
vt 0.2985 -0.0084
vn -0.0374 -0.9993 -0.0000
vn -0.0346 -0.9993 -0.0143
vn -0.0346 -0.9993 0.0143
vn -0.0264 -0.9993 0.0264
vn -0.0265 -0.9993 0.0264
vn -0.0143 -0.9993 0.0345
vn -0.0143 -0.9993 0.0344
vn 0.0000 -0.9993 0.0373
vn 0.0143 -0.9993 0.0345
vn 0.0143 -0.9993 0.0344
vn 0.0264 -0.9993 0.0264
vn 0.0265 -0.9993 0.0264
vn 0.0346 -0.9993 0.0143
vn 0.0374 -0.9993 -0.0000
vn 0.0346 -0.9993 -0.0143
vn 0.0264 -0.9993 -0.0264
vn 0.0265 -0.9993 -0.0264
vn 0.0143 -0.9993 -0.0345
vn 0.0143 -0.9993 -0.0344
vn -0.0000 -0.9993 -0.0373
vn -0.0143 -0.9993 -0.0345
vn -0.0143 -0.9993 -0.0344
vn -0.0264 -0.9993 -0.0264
vn -0.0265 -0.9993 -0.0264
vn 0.8562 0.5167 0.0000
vn 0.7913 0.5169 0.3265
vn 0.7914 0.5169 0.3264
vn 0.7914 0.5169 -0.3264
vn 0.7913 0.5169 -0.3265
vn 0.6060 0.5174 -0.6042
vn 0.6063 0.5174 -0.6040
vn 0.3282 0.5179 -0.7900
vn 0.3284 0.5179 -0.7899
vn -0.0000 0.5181 -0.8553
vn -0.3282 0.5179 -0.7900
vn -0.3284 0.5179 -0.7899
vn -0.6060 0.5174 -0.6042
vn -0.6063 0.5174 -0.6040
vn -0.7912 0.5169 -0.3268
vn -0.7913 0.5169 -0.3265
vn -0.8562 0.5167 -0.0000
vn -0.7912 0.5169 0.3268
vn -0.7913 0.5169 0.3265
vn -0.6060 0.5174 0.6042
vn -0.6063 0.5174 0.6040
vn -0.3282 0.5179 0.7900
vn -0.3284 0.5179 0.7899
vn 0.0000 0.5181 0.8553
vn 0.3282 0.5179 0.7900
vn 0.3284 0.5179 0.7899
vn 0.6060 0.5174 0.6042
vn 0.6063 0.5174 0.6040
vn 0.0000 1.0000 0.0000
vn 1.0000 -0.0000 0.0000
vn 0.9243 -0.0022 0.3816
vn 0.9243 -0.0023 0.3816
vn 0.9243 0.0000 -0.3816
vn 0.7083 0.0000 -0.7059
vn 0.3838 0.0000 -0.9234
vn -0.0000 0.0000 -1.0000
vn -0.3838 0.0000 -0.9234
vn -0.7083 0.0000 -0.7059
vn -0.9243 0.0000 -0.3816
vn -1.0000 0.0000 0.0000
vn -0.9243 0.0000 0.3816
vn -0.7083 -0.0000 0.7059
vn -0.3838 -0.0000 0.9234
vn -0.0000 0.0020 1.0000
vn 0.3838 0.0004 0.9234
vn 0.3838 0.0005 0.9234
vn 0.7083 -0.0008 0.7059
vn 0.7083 -0.0009 0.7059
vn 0.7451 -0.5917 0.3077
vn 0.7451 -0.5917 0.3078
vn 0.8063 -0.5915 0.0000
vn 0.5709 -0.5922 0.5687
vn 0.5706 -0.5922 0.5689
vn 0.3092 -0.5927 0.7437
vn 0.3090 -0.5927 0.7438
vn -0.0000 -0.5929 0.8053
vn -0.3088 -0.5927 0.7439
vn -0.3090 -0.5927 0.7438
vn -0.5706 -0.5922 0.5689
vn -0.5708 -0.5922 0.5687
vn -0.7452 -0.5917 0.3075
vn -0.7451 -0.5917 0.3077
vn -0.8063 -0.5915 -0.0000
vn -0.7452 -0.5917 -0.3075
vn -0.7451 -0.5917 -0.3077
vn -0.5709 -0.5922 -0.5687
vn -0.5706 -0.5922 -0.5689
vn -0.3092 -0.5927 -0.7437
vn -0.3090 -0.5927 -0.7438
vn -0.0000 -0.5929 -0.8053
vn 0.3092 -0.5927 -0.7437
vn 0.3090 -0.5927 -0.7438
vn 0.5709 -0.5922 -0.5687
vn 0.5709 -0.5922 -0.5686
vn 0.7451 -0.5917 -0.3078
vn 0.7451 -0.5917 -0.3077
vn -0.3839 -0.0017 0.9234
vn -0.3836 -0.0017 0.9235
vn -0.0002 0.0009 1.0000
vn -0.7082 -0.0020 0.7060
vn -0.7083 -0.0020 0.7059
vn -0.9243 -0.0021 0.3816
vn -0.9243 -0.0022 0.3816
vn -1.0000 -0.0019 -0.0001
vn -1.0000 -0.0019 0.0001
vn -0.9242 -0.0013 -0.3818
vn -0.9244 -0.0013 -0.3814
vn -0.7081 -0.0006 -0.7061
vn -0.7085 -0.0005 -0.7058
vn -0.3836 0.0002 -0.9235
vn -0.3839 0.0002 -0.9234
vn 0.0002 0.0011 -1.0000
vn -0.0002 0.0011 -1.0000
vn 0.3839 0.0017 -0.9234
vn 0.3836 0.0017 -0.9235
vn 0.7083 0.0020 -0.7059
vn 0.7082 0.0020 -0.7060
vn 0.9243 0.0021 -0.3816
vn 1.0000 0.0019 -0.0001
vn 1.0000 0.0019 0.0001
vn 0.9243 -0.0010 0.3818
vn 0.9244 -0.0010 0.3814
vn 0.7084 -0.0004 0.7058
vn 0.3836 0.0002 0.9235
vn 0.3835 0.0002 0.9235
vn 0.3836 -0.0009 -0.9235
vn 0.0167 0.0059 -0.9998
vn -0.3836 -0.0003 -0.9235
vn 0.7083 0.0074 -0.7059
vn 0.9243 -0.0008 -0.3817
vn 1.0000 0.0074 0.0000
vn 0.9243 -0.0009 0.3817
vn 0.9243 -0.0000 0.3816
vn 0.7083 0.0074 0.7059
vn 0.3836 -0.0009 0.9235
vn 0.3838 -0.0000 0.9234
vn -0.0000 0.0074 1.0000
vn -0.3836 -0.0008 0.9235
vn -0.7083 0.0074 0.7059
vn -0.9243 -0.0008 0.3817
vn -1.0000 0.0074 -0.0000
vn -0.9243 -0.0008 -0.3817
vn -0.7083 0.0074 -0.7059
vn -0.4114 0.0027 -0.9114
vn 0.0000 0.0093 -1.0000
s 1
f 35/1/1 36/2/1 37/3/2
f 35/1/1 38/4/3 36/2/1
f 39/5/3 38/4/3 35/1/1
f 39/5/3 40/6/4 38/4/3
f 41/7/5 40/6/4 39/5/3
f 41/7/5 42/8/6 40/6/4
f 43/9/7 42/8/6 41/7/5
f 43/9/7 44/10/8 42/8/6
f 45/11/8 44/10/8 43/9/7
f 45/11/8 46/12/9 44/10/8
f 47/13/10 46/12/9 45/11/8
f 47/13/10 48/14/11 46/12/9
f 49/15/12 48/14/11 47/13/10
f 49/15/12 50/16/13 48/14/11
f 51/17/13 50/16/13 49/15/12
f 51/17/13 52/18/14 50/16/13
f 53/19/14 52/18/14 51/17/13
f 53/19/14 54/20/15 52/18/14
f 55/21/15 54/20/15 53/19/14
f 55/21/15 56/22/16 54/20/15
f 57/23/17 56/22/16 55/21/15
f 57/23/17 58/24/18 56/22/16
f 59/25/19 58/24/18 57/23/17
f 59/25/19 60/26/20 58/24/18
f 61/27/20 60/26/20 59/25/19
f 61/27/20 62/28/21 60/26/20
f 63/29/22 62/28/21 61/27/20
f 63/29/22 64/30/23 62/28/21
f 65/31/24 64/30/23 63/29/22
f 65/31/24 66/32/2 64/30/23
f 37/3/2 66/32/2 65/31/24
f 37/3/2 36/2/1 66/32/2
f 67/33/25 68/34/26 69/35/27
f 67/33/25 70/36/25 68/34/26
f 71/37/28 70/36/25 67/33/25
f 71/37/28 72/38/29 70/36/25
f 73/39/30 72/38/29 71/37/28
f 73/39/30 74/40/31 72/38/29
f 75/41/32 74/40/31 73/39/30
f 75/41/32 76/42/33 74/40/31
f 77/43/34 76/42/33 75/41/32
f 77/43/34 78/44/34 76/42/33
f 79/45/35 78/44/34 77/43/34
f 79/45/35 80/46/36 78/44/34
f 81/47/37 80/46/36 79/45/35
f 81/47/37 82/48/38 80/46/36
f 83/49/39 82/48/38 81/47/37
f 83/49/39 84/50/40 82/48/38
f 85/51/41 84/50/40 83/49/39
f 85/51/41 86/52/41 84/50/40
f 87/53/42 86/52/41 85/51/41
f 87/53/42 88/54/43 86/52/41
f 89/55/44 88/54/43 87/53/42
f 89/55/44 90/56/45 88/54/43
f 91/57/46 90/56/45 89/55/44
f 91/57/46 92/58/47 90/56/45
f 93/59/48 92/58/47 91/57/46
f 93/59/48 94/60/48 92/58/47
f 95/61/49 94/60/48 93/59/48
f 95/61/49 96/62/50 94/60/48
f 97/63/51 96/62/50 95/61/49
f 97/63/51 98/64/52 96/62/50
f 69/35/27 98/64/52 97/63/51
f 69/35/27 68/34/26 98/64/52
f 99/65/53 100/66/53 101/67/53
f 99/65/53 102/68/53 100/66/53
f 103/69/53 102/68/53 99/65/53
f 103/69/53 104/70/53 102/68/53
f 105/71/53 104/70/53 103/69/53
f 105/71/53 106/72/53 104/70/53
f 107/73/53 106/72/53 105/71/53
f 107/73/53 108/74/53 106/72/53
f 109/75/53 108/74/53 107/73/53
f 109/75/53 110/76/53 108/74/53
f 111/77/53 110/76/53 109/75/53
f 111/77/53 112/78/53 110/76/53
f 113/79/53 112/78/53 111/77/53
f 113/79/53 114/80/53 112/78/53
f 115/81/53 114/80/53 113/79/53
f 115/81/53 116/82/53 114/80/53
f 117/83/53 116/82/53 115/81/53
f 117/83/53 118/84/53 116/82/53
f 119/85/53 118/84/53 117/83/53
f 119/85/53 120/86/53 118/84/53
f 121/87/53 120/86/53 119/85/53
f 121/87/53 122/88/53 120/86/53
f 123/89/53 122/88/53 121/87/53
f 123/89/53 124/90/53 122/88/53
f 125/91/53 124/90/53 123/89/53
f 125/91/53 126/92/53 124/90/53
f 127/93/53 126/92/53 125/91/53
f 127/93/53 128/94/53 126/92/53
f 129/95/53 128/94/53 127/93/53
f 129/95/53 130/96/53 128/94/53
f 101/67/53 130/96/53 129/95/53
f 101/67/53 100/66/53 130/96/53
f 131/97/54 132/98/55 133/99/56
f 131/97/54 134/100/54 132/98/55
f 135/101/57 134/100/54 131/97/54
f 135/101/57 136/102/57 134/100/54
f 137/103/58 136/102/57 135/101/57
f 137/103/58 138/104/58 136/102/57
f 139/105/59 138/104/58 137/103/58
f 139/105/59 140/106/59 138/104/58
f 141/107/60 140/106/59 139/105/59
f 141/107/60 142/108/60 140/106/59
f 143/109/61 142/108/60 141/107/60
f 143/109/61 144/110/61 142/108/60
f 145/111/62 144/110/61 143/109/61
f 145/111/62 146/112/62 144/110/61
f 147/113/63 146/112/62 145/111/62
f 147/113/63 148/114/63 146/112/62
f 149/115/64 148/114/63 147/113/63
f 149/115/64 150/116/64 148/114/63
f 151/117/65 150/116/64 149/115/64
f 151/117/65 152/118/65 150/116/64
f 153/119/66 152/118/65 151/117/65
f 153/119/66 154/120/66 152/118/65
f 155/121/67 154/120/66 153/119/66
f 155/121/67 156/122/67 154/120/66
f 157/123/68 156/122/67 155/121/67
f 157/123/68 158/124/68 156/122/67
f 159/125/69 158/124/68 157/123/68
f 159/125/69 160/126/70 158/124/68
f 161/127/71 160/126/70 159/125/69
f 161/127/71 162/128/72 160/126/70
f 133/99/56 162/128/72 161/127/71
f 133/99/56 132/98/55 162/128/72
f 163/129/73 164/130/74 165/131/75
f 163/129/73 166/132/76 164/130/74
f 167/133/77 166/132/76 163/129/73
f 167/133/77 168/134/78 166/132/76
f 169/135/79 168/134/78 167/133/77
f 169/135/79 170/136/80 168/134/78
f 171/137/80 170/136/80 169/135/79
f 171/137/80 172/138/81 170/136/80
f 173/139/82 172/138/81 171/137/80
f 173/139/82 174/140/83 172/138/81
f 175/141/84 174/140/83 173/139/82
f 175/141/84 176/142/85 174/140/83
f 177/143/86 176/142/85 175/141/84
f 177/143/86 178/144/87 176/142/85
f 179/145/87 178/144/87 177/143/86
f 179/145/87 180/146/88 178/144/87
f 181/147/89 180/146/88 179/145/87
f 181/147/89 182/148/90 180/146/88
f 183/149/91 182/148/90 181/147/89
f 183/149/91 184/150/92 182/148/90
f 185/151/93 184/150/92 183/149/91
f 185/151/93 186/152/94 184/150/92
f 187/153/94 186/152/94 185/151/93
f 187/153/94 188/154/95 186/152/94
f 189/155/96 188/154/95 187/153/94
f 189/155/96 190/156/97 188/154/95
f 191/157/98 190/156/97 189/155/96
f 191/157/98 192/158/99 190/156/97
f 193/159/100 192/158/99 191/157/98
f 193/159/100 165/131/75 192/158/99
f 194/160/75 165/131/75 193/159/100
f 194/160/75 163/129/73 165/131/75
f 195/161/101 196/162/102 197/163/103
f 195/161/101 198/164/104 196/162/102
f 199/165/105 198/164/104 195/161/101
f 199/165/105 200/166/106 198/164/104
f 201/167/107 200/166/106 199/165/105
f 201/167/107 202/168/108 200/166/106
f 203/169/109 202/168/108 201/167/107
f 203/169/109 204/170/110 202/168/108
f 205/171/111 204/170/110 203/169/109
f 205/171/111 206/172/112 204/170/110
f 207/173/113 206/172/112 205/171/111
f 207/173/113 208/174/114 206/172/112
f 209/175/115 208/174/114 207/173/113
f 209/175/115 210/176/116 208/174/114
f 211/177/117 210/176/116 209/175/115
f 211/177/117 212/178/118 210/176/116
f 213/179/119 212/178/118 211/177/117
f 213/179/119 214/180/120 212/178/118
f 215/181/121 214/180/120 213/179/119
f 215/181/121 216/182/122 214/180/120
f 217/183/122 216/182/122 215/181/121
f 217/183/122 218/184/123 216/182/122
f 219/185/124 218/184/123 217/183/122
f 219/185/124 220/186/125 218/184/123
f 221/187/126 220/186/125 219/185/124
f 221/187/126 222/188/127 220/186/125
f 223/189/127 222/188/127 221/187/126
f 223/189/127 224/190/128 222/188/127
f 225/191/129 224/190/128 223/189/127
f 225/191/129 226/192/103 224/190/128
f 197/163/103 226/192/103 195/161/101
f 197/163/103 224/190/128 226/192/103
f 1/193/53 2/194/53 3/195/53
f 1/193/53 4/196/53 2/194/53
f 5/197/53 4/196/53 1/193/53
f 5/197/53 6/198/53 4/196/53
f 7/199/130 8/200/131 9/201/132
f 7/199/130 10/202/59 8/200/131
f 11/203/133 10/202/59 7/199/130
f 12/204/134 11/203/133 7/199/130
f 12/204/134 13/205/57 11/203/133
f 14/206/135 13/205/57 12/204/134
f 15/207/136 14/206/135 12/204/134
f 15/207/136 16/208/137 14/206/135
f 17/209/138 16/208/137 15/207/136
f 18/210/139 17/209/138 15/207/136
f 18/210/139 19/211/140 17/209/138
f 20/212/141 19/211/140 18/210/139
f 21/213/142 20/212/141 18/210/139
f 21/213/142 22/214/67 20/212/141
f 23/215/143 22/214/67 21/213/142
f 24/216/144 23/215/143 21/213/142
f 24/216/144 25/217/65 23/215/143
f 26/218/145 25/217/65 24/216/144
f 27/219/146 26/218/145 24/216/144
f 27/219/146 28/220/63 26/218/145
f 29/221/147 28/220/63 27/219/146
f 30/222/148 29/221/147 27/219/146
f 30/222/148 31/223/61 29/221/147
f 32/224/149 31/223/61 30/222/148
f 4/196/53 33/225/53 2/194/53
f 1/193/53 34/226/53 5/197/53
